*** Darwin 5x3 ***
Turn = 0.
  012
0 ff.
1 .fh
2 ...
3 ...
4 h.f

Turn = 2.
  012
0 ffh
1 .f.
2 ...
3 ...
4 h.f

Turn = 4.
  012
0 ffh
1 .f.
2 ...
3 ...
4 h.f

Turn = 6.
  012
0 ffh
1 .f.
2 ...
3 ...
4 h.f

Turn = 8.
  012
0 ffh
1 .f.
2 ...
3 ...
4 h.f

Turn = 10.
  012
0 ffh
1 .f.
2 ...
3 ...
4 h.f

Turn = 12.
  012
0 ffh
1 .f.
2 ...
3 ...
4 h.f

Turn = 14.
  012
0 ffh
1 .f.
2 ...
3 ...
4 h.f

Turn = 16.
  012
0 ffh
1 .f.
2 ...
3 ...
4 h.f

Turn = 18.
  012
0 ffh
1 .f.
2 ...
3 ...
4 h.f

*** Darwin 4x4 ***
Turn = 0.
  0123
0 ....
1 ....
2 fh..
3 ...t

Turn = 1.
  0123
0 ....
1 .h..
2 f...
3 ...t

Turn = 2.
  0123
0 .h..
1 ....
2 f...
3 ...t

Turn = 3.
  0123
0 .h..
1 ....
2 f...
3 ...t

Turn = 4.
  0123
0 .h..
1 ....
2 f...
3 ...t

Turn = 5.
  0123
0 .h..
1 ....
2 f...
3 ...t

Turn = 6.
  0123
0 .h..
1 ....
2 f...
3 ...t

Turn = 7.
  0123
0 .h..
1 ....
2 f...
3 ...t

Turn = 8.
  0123
0 .h..
1 ....
2 f...
3 ...t

Turn = 9.
  0123
0 .h..
1 ....
2 f...
3 ...t

Turn = 10.
  0123
0 .h..
1 ....
2 f...
3 ...t

Turn = 11.
  0123
0 .h..
1 ....
2 f...
3 ...t

Turn = 12.
  0123
0 .h..
1 ....
2 f...
3 ...t

Turn = 13.
  0123
0 .h..
1 ....
2 f...
3 ...t

Turn = 14.
  0123
0 .h..
1 ....
2 f...
3 ...t

Turn = 15.
  0123
0 .h..
1 ....
2 f...
3 ...t

Turn = 16.
  0123
0 .h..
1 ....
2 f...
3 ...t

*** Darwin 3x2 ***
Turn = 0.
  01
0 .f
1 h.
2 ht

Turn = 2.
  01
0 hf
1 ..
2 tt

Turn = 4.
  01
0 hf
1 ..
2 tt

Turn = 6.
  01
0 hf
1 ..
2 tt

Turn = 8.
  01
0 hf
1 ..
2 tt

Turn = 10.
  01
0 hf
1 ..
2 tt

Turn = 12.
  01
0 hf
1 ..
2 tt

Turn = 14.
  01
0 hf
1 ..
2 tt

Turn = 16.
  01
0 hf
1 ..
2 tt

Turn = 18.
  01
0 hf
1 ..
2 tt

*** Darwin 3x4 ***
Turn = 0.
  0123
0 .hr.
1 t.hh
2 ..h.

Turn = 1.
  0123
0 .hr.
1 t.hh
2 ...h

Turn = 2.
  0123
0 .hhr
1 t..h
2 ...h

Turn = 3.
  0123
0 .hhr
1 t..h
2 ...h

Turn = 4.
  0123
0 .hhr
1 t..h
2 ...h

Turn = 5.
  0123
0 .hhr
1 t..h
2 ...h

Turn = 6.
  0123
0 .hhr
1 t..r
2 ...h

Turn = 7.
  0123
0 .hhr
1 t..r
2 ...r

Turn = 8.
  0123
0 .hrr
1 t..r
2 ...r

Turn = 9.
  0123
0 .hrr
1 t..r
2 ...r

Turn = 10.
  0123
0 .hrr
1 t..r
2 ...r

Turn = 11.
  0123
0 .hr.
1 t.rr
2 ..r.

Turn = 12.
  0123
0 .rrr
1 t.r.
2 .r..

Turn = 13.
  0123
0 .rrr
1 t..r
2 r...

Turn = 14.
  0123
0 .rrr
1 t..r
2 r...

Turn = 15.
  0123
0 .rrr
1 t..r
2 r...

Turn = 16.
  0123
0 ..r.
1 trrr
2 t...

*** Darwin 3x3 ***
Turn = 0.
  012
0 .tf
1 r..
2 .f.

Turn = 1.
  012
0 .tf
1 r..
2 .f.

Turn = 2.
  012
0 rtf
1 ...
2 .f.

Turn = 3.
  012
0 rtt
1 ...
2 .f.

Turn = 4.
  012
0 rtt
1 ...
2 .f.

Turn = 5.
  012
0 rtt
1 ...
2 .f.

Turn = 6.
  012
0 rtt
1 ...
2 .f.

Turn = 7.
  012
0 rtt
1 ...
2 .f.

Turn = 8.
  012
0 rrr
1 ...
2 .f.

Turn = 9.
  012
0 rr.
1 ..r
2 .f.

Turn = 10.
  012
0 r..
1 .r.
2 .fr

Turn = 11.
  012
0 .r.
1 .r.
2 .rr

Turn = 12.
  012
0 ..r
1 .r.
2 rr.

Turn = 13.
  012
0 ..r
1 ..r
2 rr.

Turn = 14.
  012
0 ..r
1 r.r
2 .r.

Turn = 15.
  012
0 r.r
1 ..r
2 ..r

*** Darwin 5x6 ***
Turn = 0.
  012345
0 ....r.
1 ....r.
2 ......
3 ...h..
4 ......

Turn = 2.
  012345
0 .....r
1 ...h.r
2 ......
3 ......
4 ......

Turn = 4.
  012345
0 ...hr.
1 .....r
2 ......
3 ......
4 ......

Turn = 6.
  012345
0 ...rr.
1 ......
2 ......
3 .....r
4 ......

Turn = 8.
  012345
0 ...r..
1 ......
2 ....r.
3 ......
4 .....r

Turn = 10.
  012345
0 .....r
1 ......
2 ......
3 ....r.
4 ...r..

Turn = 12.
  012345
0 ......
1 .....r
2 ......
3 .....r
4 .r....

Turn = 14.
  012345
0 ......
1 ......
2 .....r
3 .....r
4 r.....

Turn = 16.
  012345
0 ......
1 .....r
2 ...r..
3 ......
4 .r....

Turn = 18.
  012345
0 .....r
1 ......
2 .r....
3 ......
4 ...r..

*** Darwin 6x3 ***
Turn = 0.
  012
0 ..f
1 r..
2 ...
3 h..
4 .t.
5 .f.

Turn = 3.
  012
0 .rf
1 ...
2 ...
3 h..
4 .t.
5 .t.

Turn = 6.
  012
0 ..r
1 ...
2 ...
3 h.r
4 .t.
5 .t.

Turn = 9.
  012
0 ...
1 ..r
2 ...
3 h..
4 .t.
5 .tr

Turn = 12.
  012
0 ...
1 ...
2 ...
3 h..
4 .tr
5 .tt

Turn = 15.
  012
0 ...
1 ...
2 ...
3 h..
4 .tt
5 .tt

*** Darwin 5x5 ***
Turn = 0.
  01234
0 ....h
1 .....
2 ..f.f
3 .....
4 .fh.t

Turn = 1.
  01234
0 ....h
1 .....
2 ..f.f
3 ..h..
4 .f..t

Turn = 2.
  01234
0 ....h
1 .....
2 ..f.f
3 ..h..
4 .f..t

Turn = 3.
  01234
0 ....h
1 .....
2 ..f.f
3 ..h..
4 .f..t

Turn = 4.
  01234
0 ....h
1 .....
2 ..f.f
3 ..h..
4 .f..t

Turn = 5.
  01234
0 ....h
1 .....
2 ..f.f
3 ..h..
4 .f..t

Turn = 6.
  01234
0 ....h
1 .....
2 ..f.f
3 ..h..
4 .f..t

Turn = 7.
  01234
0 ....h
1 .....
2 ..f.f
3 ..h..
4 .f..t

Turn = 8.
  01234
0 ....h
1 .....
2 ..f.f
3 ..h..
4 .f..t

Turn = 9.
  01234
0 ....h
1 .....
2 ..f.f
3 ..h..
4 .f..t

Turn = 10.
  01234
0 ....h
1 .....
2 ..f.f
3 ..h..
4 .f..t

Turn = 11.
  01234
0 ....h
1 .....
2 ..f.f
3 ..h..
4 .f..t

Turn = 12.
  01234
0 ....h
1 .....
2 ..f.f
3 ..h..
4 .f..t

Turn = 13.
  01234
0 ....h
1 .....
2 ..f.f
3 ..h..
4 .f..t

Turn = 14.
  01234
0 ....h
1 .....
2 ..f.f
3 ..h..
4 .f..t

Turn = 15.
  01234
0 ....h
1 .....
2 ..f.f
3 ..h..
4 .f..t

*** Darwin 4x3 ***
Turn = 0.
  012
0 ...
1 r..
2 .f.
3 .rf

Turn = 1.
  012
0 ...
1 .r.
2 .r.
3 .rf

Turn = 2.
  012
0 ...
1 ..r
2 rr.
3 ..f

Turn = 3.
  012
0 ...
1 .rr
2 r..
3 ..f

Turn = 4.
  012
0 .r.
1 ...
2 ..r
3 r.f

Turn = 5.
  012
0 .r.
1 ...
2 ..r
3 rr.

Turn = 6.
  012
0 ..r
1 ...
2 ...
3 rrr

Turn = 7.
  012
0 ..r
1 ...
2 rr.
3 ..r

Turn = 8.
  012
0 ..r
1 rr.
2 ...
3 ..r

Turn = 9.
  012
0 rrr
1 ...
2 ...
3 ..r

Turn = 10.
  012
0 rrr
1 ...
2 ...
3 .r.

Turn = 11.
  012
0 rrr
1 ...
2 ...
3 r..

Turn = 12.
  012
0 .rr
1 r..
2 ...
3 r..

Turn = 13.
  012
0 rr.
1 ...
2 r..
3 r..

Turn = 14.
  012
0 rr.
1 ...
2 r..
3 r..

Turn = 15.
  012
0 rr.
1 ...
2 .r.
3 r..

Turn = 16.
  012
0 r.r
1 ...
2 ..r
3 r..

Turn = 17.
  012
0 r.r
1 ...
2 r.r
3 ...

Turn = 18.
  012
0 r.r
1 r.r
2 ...
3 ...

Turn = 19.
  012
0 r.r
1 r.r
2 ...
3 ...

Turn = 20.
  012
0 .rr
1 .rr
2 ...
3 ...

*** Darwin 4x6 ***
Turn = 0.
  012345
0 th....
1 .f....
2 ......
3 .h..f.

Turn = 3.
  012345
0 th....
1 .f....
2 ......
3 h...f.

Turn = 6.
  012345
0 tt....
1 .t....
2 ......
3 h...f.

Turn = 9.
  012345
0 tt....
1 .t....
2 ......
3 h...f.

Turn = 12.
  012345
0 tt....
1 .t....
2 ......
3 h...f.

Turn = 15.
  012345
0 tt....
1 .t....
2 ......
3 h...f.

*** Darwin 2x5 ***
Turn = 0.
  01234
0 f.f..
1 ff...

Turn = 3.
  01234
0 f.f..
1 ff...

Turn = 6.
  01234
0 f.f..
1 ff...

Turn = 9.
  01234
0 f.f..
1 ff...

Turn = 12.
  01234
0 f.f..
1 ff...

Turn = 15.
  01234
0 f.f..
1 ff...

Turn = 18.
  01234
0 f.f..
1 ff...

*** Darwin 5x4 ***
Turn = 0.
  0123
0 ...r
1 .hh.
2 ..f.
3 ..h.
4 .h..

Turn = 2.
  0123
0 .r..
1 ...h
2 ..f.
3 .hh.
4 .h..

Turn = 4.
  0123
0 r...
1 ...h
2 ..f.
3 .hh.
4 .h..

Turn = 6.
  0123
0 r...
1 ...h
2 ..f.
3 .hh.
4 .h..

Turn = 8.
  0123
0 .r..
1 ...h
2 ..f.
3 .hh.
4 .h..

Turn = 10.
  0123
0 ...r
1 ...h
2 ..f.
3 .hh.
4 .h..

Turn = 12.
  0123
0 ...r
1 ...r
2 ..f.
3 .hh.
4 .h..

Turn = 14.
  0123
0 ...r
1 ....
2 ..f.
3 .hhr
4 .h..

Turn = 16.
  0123
0 ...r
1 ....
2 ..f.
3 .hh.
4 .h.r

Turn = 18.
  0123
0 ....
1 ....
2 ..fr
3 .hh.
4 .h.r

Turn = 20.
  0123
0 ....
1 ....
2 ..f.
3 .hhr
4 .h.r

*** Darwin 5x3 ***
Turn = 0.
  012
0 rf.
1 ..h
2 ...
3 h..
4 .t.

Turn = 3.
  012
0 .rr
1 ...
2 ...
3 ht.
4 .t.

Turn = 6.
  012
0 ..r
1 ...
2 ..r
3 ht.
4 .t.

Turn = 9.
  012
0 ...
1 ...
2 ..r
3 tt.
4 .tr

Turn = 12.
  012
0 ...
1 ...
2 ...
3 ttt
4 .rr

Turn = 15.
  012
0 ...
1 ...
2 ...
3 ttt
4 .tt

*** Darwin 3x4 ***
Turn = 0.
  0123
0 .r..
1 ..f.
2 .rtf

Turn = 2.
  0123
0 r...
1 ..t.
2 r.tf

Turn = 4.
  0123
0 ....
1 r.t.
2 r.tf

Turn = 6.
  0123
0 r...
1 ..t.
2 .rrr

Turn = 8.
  0123
0 r...
1 ..t.
2 .rrr

Turn = 10.
  0123
0 ....
1 ..r.
2 rrrr

Turn = 12.
  0123
0 ....
1 .r.r
2 rr.r

Turn = 14.
  0123
0 rr..
1 ....
2 rr.r

Turn = 16.
  0123
0 rr..
1 .r..
2 r.r.

*** Darwin 2x6 ***
Turn = 0.
  012345
0 f..rr.
1 r..r..

Turn = 2.
  012345
0 f..r..
1 r..rr.

Turn = 4.
  012345
0 fr....
1 r.r..r

Turn = 6.
  012345
0 rr...r
1 rr....

Turn = 8.
  012345
0 rr...r
1 r.r...

Turn = 10.
  012345
0 r.rr..
1 r...r.

Turn = 12.
  012345
0 r.r...
1 ..rr.r

Turn = 14.
  012345
0 r...r.
1 ..r.rr

Turn = 16.
  012345
0 r....r
1 r...rr

Turn = 18.
  012345
0 .r..r.
1 r...rr

*** Darwin 2x3 ***
Turn = 0.
  012
0 .hr
1 f..

Turn = 3.
  012
0 .hr
1 f..

Turn = 6.
  012
0 .h.
1 f.r

Turn = 9.
  012
0 .h.
1 rr.

Turn = 12.
  012
0 rr.
1 ..r

Turn = 15.
  012
0 ...
1 rrr

*** Darwin 2x4 ***
Turn = 0.
  0123
0 ..hh
1 ..f.

Turn = 3.
  0123
0 ..hh
1 ..f.

Turn = 6.
  0123
0 ..hh
1 ..f.

Turn = 9.
  0123
0 ..hh
1 ..f.

Turn = 12.
  0123
0 ..hh
1 ..f.

Turn = 15.
  0123
0 ..hh
1 ..f.

*** Darwin 2x5 ***
Turn = 0.
  01234
0 h..tf
1 rf...

Turn = 1.
  01234
0 h..tt
1 rr...

Turn = 2.
  01234
0 hr.tt
1 r....

Turn = 3.
  01234
0 rr.tt
1 r....

Turn = 4.
  01234
0 r.ttt
1 r....

Turn = 5.
  01234
0 r.ttt
1 .r...

Turn = 6.
  01234
0 .rttt
1 ..r..

Turn = 7.
  01234
0 .rrtt
1 ...r.

Turn = 8.
  01234
0 .r.tt
1 ..r.r

Turn = 9.
  01234
0 .r.tt
1 ..r.r

Turn = 10.
  01234
0 ..rtt
1 .r..t

Turn = 11.
  01234
0 ..rrr
1 r..r.

Turn = 12.
  01234
0 ..rr.
1 r.r.r

Turn = 13.
  01234
0 r.rr.
1 .r..r

Turn = 14.
  01234
0 rrr..
1 r...r

Turn = 15.
  01234
0 rrr.r
1 r....

*** Darwin 6x3 ***
Turn = 0.
  012
0 ..r
1 ...
2 .rf
3 trh
4 ..h
5 ...

Turn = 3.
  012
0 ...
1 ..r
2 .rr
3 rrr
4 r..
5 ...

Turn = 6.
  012
0 ..r
1 ...
2 rr.
3 rrr
4 ...
5 ..r

Turn = 9.
  012
0 rr.
1 r.r
2 r..
3 ...
4 ..r
5 ..r

Turn = 12.
  012
0 .rr
1 .rr
2 ...
3 ..r
4 ..r
5 ..r

Turn = 15.
  012
0 .rr
1 r..
2 ..r
3 r..
4 r..
5 r..

*** Darwin 2x6 ***
Turn = 0.
  012345
0 .h....
1 ....rt

Turn = 2.
  012345
0 h.....
1 ....rr

Turn = 4.
  012345
0 h...r.
1 ...r..

Turn = 6.
  012345
0 h....r
1 .r....

Turn = 8.
  012345
0 h.....
1 r....r

Turn = 10.
  012345
0 r....r
1 r.....

Turn = 12.
  012345
0 r....r
1 ..r...

Turn = 14.
  012345
0 ......
1 r...rr

Turn = 16.
  012345
0 ....rr
1 r.....

Turn = 18.
  012345
0 ....rr
1 ..r...

*** Darwin 2x2 ***
Turn = 0.
  01
0 tf
1 rt

Turn = 1.
  01
0 tt
1 rt

Turn = 2.
  01
0 tt
1 rt

Turn = 3.
  01
0 tt
1 tt

Turn = 4.
  01
0 tt
1 tt

Turn = 5.
  01
0 tt
1 tt

Turn = 6.
  01
0 tt
1 tt

Turn = 7.
  01
0 tt
1 tt

Turn = 8.
  01
0 tt
1 tt

Turn = 9.
  01
0 tt
1 tt

Turn = 10.
  01
0 tt
1 tt

Turn = 11.
  01
0 tt
1 tt

Turn = 12.
  01
0 tt
1 tt

Turn = 13.
  01
0 tt
1 tt

Turn = 14.
  01
0 tt
1 tt

Turn = 15.
  01
0 tt
1 tt

Turn = 16.
  01
0 tt
1 tt

Turn = 17.
  01
0 tt
1 tt

Turn = 18.
  01
0 tt
1 tt

Turn = 19.
  01
0 tt
1 tt

*** Darwin 3x5 ***
Turn = 0.
  01234
0 .....
1 .r...
2 .rr.r

Turn = 2.
  01234
0 .....
1 r....
2 r..rr

Turn = 4.
  01234
0 r...r
1 .....
2 r...r

Turn = 6.
  01234
0 .r.r.
1 r...r
2 .....

Turn = 8.
  01234
0 r.rrr
1 .....
2 .....

Turn = 10.
  01234
0 .rr.r
1 ...r.
2 .....

Turn = 12.
  01234
0 rr..r
1 .....
2 ...r.

Turn = 14.
  01234
0 rr..r
1 .....
2 .r...

Turn = 16.
  01234
0 rr..r
1 .....
2 r....

Turn = 18.
  01234
0 rr..r
1 r....
2 .....

*** Darwin 4x3 ***
Turn = 0.
  012
0 ...
1 ht.
2 .rt
3 .t.

Turn = 1.
  012
0 ...
1 .t.
2 htt
3 .t.

Turn = 2.
  012
0 ...
1 .t.
2 .tt
3 tt.

Turn = 3.
  012
0 ...
1 .t.
2 .tt
3 tt.

Turn = 4.
  012
0 ...
1 .t.
2 .tt
3 tt.

Turn = 5.
  012
0 ...
1 .t.
2 .tt
3 tt.

Turn = 6.
  012
0 ...
1 .t.
2 .tt
3 tt.

Turn = 7.
  012
0 ...
1 .t.
2 .tt
3 tt.

Turn = 8.
  012
0 ...
1 .t.
2 .tt
3 tt.

Turn = 9.
  012
0 ...
1 .t.
2 .tt
3 tt.

Turn = 10.
  012
0 ...
1 .t.
2 .tt
3 tt.

Turn = 11.
  012
0 ...
1 .t.
2 .tt
3 tt.

Turn = 12.
  012
0 ...
1 .t.
2 .tt
3 tt.

Turn = 13.
  012
0 ...
1 .t.
2 .tt
3 tt.

Turn = 14.
  012
0 ...
1 .t.
2 .tt
3 tt.

Turn = 15.
  012
0 ...
1 .t.
2 .tt
3 tt.

Turn = 16.
  012
0 ...
1 .t.
2 .tt
3 tt.

Turn = 17.
  012
0 ...
1 .t.
2 .tt
3 tt.

Turn = 18.
  012
0 ...
1 .t.
2 .tt
3 tt.

Turn = 19.
  012
0 ...
1 .t.
2 .tt
3 tt.
